[gd_scene load_steps=3 format=3 uid="uid://cj0our7u8hbxn"]

[ext_resource type="Script" path="res://main/game.gd" id="1_xiak8"]
[ext_resource type="Script" path="res://main/camera2D.gd" id="2_3oqvi"]

[node name="Game" type="Node"]
script = ExtResource("1_xiak8")

[node name="Camera2D" type="Camera2D" parent="."]
position = Vector2(640, 360)
zoom = Vector2(1.5, 1.5)
script = ExtResource("2_3oqvi")

[node name="CanvasLayer" type="CanvasLayer" parent="."]
