[gd_scene load_steps=4 format=3 uid="uid://d088ln4t0jejw"]

[ext_resource type="Script" path="res://ui/ui_manager.gd" id="1_jpjjm"]
[ext_resource type="PackedScene" uid="uid://c3ydl1hccwps8" path="res://ui/build_menu.tscn" id="2_k8mh4"]
[ext_resource type="PackedScene" uid="uid://d2yro730m4y3p" path="res://ui/top_panel.tscn" id="3_yans8"]

[node name="UI Manager" type="Control"]
layout_mode = 3
anchors_preset = 15
anchor_right = 1.0
anchor_bottom = 1.0
grow_horizontal = 2
grow_vertical = 2
script = ExtResource("1_jpjjm")

[node name="TopPanel" parent="." instance=ExtResource("3_yans8")]
layout_mode = 1

[node name="BuildMenu" parent="." instance=ExtResource("2_k8mh4")]
layout_mode = 1
